......
----------------------------------------------------------------------
Ran 6 tests in 0.001s

OK
Name               Stmts   Miss Branch BrPart  Cover   Missing
--------------------------------------------------------------
Diplomacy.py          75      0     50      0   100%
TestDiplomacy.py      28      0      0      0   100%
--------------------------------------------------------------
TOTAL                103      0     50      0   100%
